{
  "rounds": [
    {
      "round": 1,
      "spawns": [
        {
          "position": {
            "x": 200,
            "y": 200
          },
          "enemyType": "RaycasterEnemy",
          "delayBeforeSpawn": 0,
          "spawnRate": 1,
          "totalSpawns": 1
        }
      ]
    },
    {
      "round": 2,
      "spawns": [
        {
          "position": {
            "x": 1000,
            "y": 1000
          },
          "enemyType": "RaycasterEnemy",
          "delayBeforeSpawn": 0,
          "spawnRate": 2,
          "totalSpawns": 3
        },
        {
          "position": {
            "x": 1000,
            "y": 200
          },
          "enemyType": "SkeletonEnemy",
          "delayBeforeSpawn": 0,
          "spawnRate": 2,
          "totalSpawns": 1
        }
      ]
    },
    {
      "round":3,
      "spawns": [
        {
          "position": {
            "x": 1000,
            "y": 300
          },
          "enemyType": "SkeletonEnemy",
          "delayBeforeSpawn": 0,
          "spawnRate": 1,
          "totalSpawns": 3
        },
        {
          "position": {
            "x": 300,
            "y": 1000
          },
          "enemyType": "RaycasterEnemy",
          "delayBeforeSpawn": 0,
          "spawnRate": 2,
          "totalSpawns": 6
        },
        {
          "position": {
            "x": 300,
            "y": 1500
          },
          "enemyType": "RaycasterEnemy",
          "delayBeforeSpawn": 0,
          "spawnRate": 3,
          "totalSpawns": 4
        }
      ]
    },
    {
      "round": 4,
      "spawns": [
        {
          "position": {
            "x": 300,
            "y": 300
          },
          "enemyType": "RaycasterEnemy",
          "delayBeforeSpawn": 0,
          "spawnRate": 1,
          "totalSpawns": 2
        },
        {
          "position": {
            "x": 1000,
            "y": 300
          },
          "enemyType": "SkeletonEnemy",
          "delayBeforeSpawn": 0,
          "spawnRate": 1,
          "totalSpawns": 2
        },
        {
          "position": {
            "x": 300,
            "y": 1000
          },
          "enemyType": "RaycasterEnemy",
          "delayBeforeSpawn": 0,
          "spawnRate": 1,
          "totalSpawns": 2
        },
        {
          "position": {
            "x": 1000,
            "y": 1000
          },
          "enemyType": "SkeletonEnemy",
          "delayBeforeSpawn": 0,
          "spawnRate": 1,
          "totalSpawns": 2
        },
        {
          "position": {
            "x": 500,
            "y": 500
          },
          "enemyType": "MagicianEnemy",
          "delayBeforeSpawn": 2000,
          "spawnRate": 2,
          "totalSpawns": 2
        }
      ]
    },
    {
      "round": 5,
      "spawns": [
        {
          "position": {
            "x": 300,
            "y": 300
          },
          "enemyType": "VampireEnemy",
          "delayBeforeSpawn": 0,
          "spawnRate": 1,
          "totalSpawns": 1
        },
        {
          "position": {
            "x": 300,
            "y": 1000
          },
          "enemyType": "RaycasterEnemy",
          "delayBeforeSpawn": 0,
          "spawnRate": 1,
          "totalSpawns": 2
        },
        {
          "position": {
            "x": 300,
            "y": 1500
          },
          "enemyType": "RaycasterEnemy",
          "delayBeforeSpawn": 0,
          "spawnRate": 3,
          "totalSpawns": 4
        }
      ]
    },
    {
      "round": 6,
      "spawns": [
        {
          "position": {
            "x": 300,
            "y": 300
          },
          "enemyType": "VampireEnemy",
          "delayBeforeSpawn": 10000,
          "spawnRate": 1,
          "totalSpawns": 2
        },
        {
          "position": {
            "x": 300,
            "y": 1000
          },
          "enemyType": "RaycasterEnemy",
          "delayBeforeSpawn": 0,
          "spawnRate": 1,
          "totalSpawns": 2
        },
        {
          "position": {
            "x": 1000,
            "y": 1000
          },
          "enemyType": "SkeletonEnemy",
          "delayBeforeSpawn": 0,
          "spawnRate": 1,
          "totalSpawns": 2
        },
        {
          "position": {
            "x": 500,
            "y": 500
          },
          "enemyType": "MagicianEnemy",
          "delayBeforeSpawn": 2000,
          "spawnRate": 2,
          "totalSpawns": 2
        }
      ]
    },
    {
      "round": 7,
      "spawns": [
        {
          "position": {
            "x": 300,
            "y": 300
          },
          "enemyType": "VampireEnemy",
          "delayBeforeSpawn": 10000,
          "spawnRate": 5,
          "totalSpawns": 2
        },
        {
          "position": {
            "x": 300,
            "y": 1000
          },
          "enemyType": "RaycasterEnemy",
          "delayBeforeSpawn": 0,
          "spawnRate": 1,
          "totalSpawns": 10
        },
        {
          "position": {
            "x": 1000,
            "y": 1000
          },
          "enemyType": "SkeletonEnemy",
          "delayBeforeSpawn": 0,
          "spawnRate": 2,
          "totalSpawns": 8
        },
        {
          "position": {
            "x": 500,
            "y": 500
          },
          "enemyType": "MagicianEnemy",
          "delayBeforeSpawn": 2000,
          "spawnRate": 4,
          "totalSpawns": 4
        }
      ]
    },
    {
      "round": 8,
      "spawns": [
        {
          "position": {
            "x": 300,
            "y": 300
          },
          "enemyType": "VampireEnemy",
          "delayBeforeSpawn": 10000,
          "spawnRate": 10,
          "totalSpawns": 8
        },
        {
          "position": {
            "x": 300,
            "y": 1000
          },
          "enemyType": "RaycasterEnemy",
          "delayBeforeSpawn": 0,
          "spawnRate": 1,
          "totalSpawns": 10
        },
        {
          "position": {
            "x": 500,
            "y": 500
          },
          "enemyType": "MagicianEnemy",
          "delayBeforeSpawn": 2000,
          "spawnRate": 10,
          "totalSpawns": 8
        },
        {
          "position": {
            "x": 1000,
            "y": 1000
          },
          "enemyType": "SkeletonEnemy",
          "delayBeforeSpawn": 0,
          "spawnRate": 10,
          "totalSpawns": 8
        }
      ]
    },
    {
      "round": 9,
      "spawns": [
        {
          "position": {
            "x": 300,
            "y": 300
          },
          "enemyType": "VampireEnemy",
          "delayBeforeSpawn": 10000,
          "spawnRate": 5,
          "totalSpawns": 5
        },
        {
          "position": {
            "x": 300,
            "y": 1000
          },
          "enemyType": "RaycasterEnemy",
          "delayBeforeSpawn": 0,
          "spawnRate": 2,
          "totalSpawns": 20
        },
        {
          "position": {
            "x": 300,
            "y": 1000
          },
          "enemyType": "SkeletonEnemy",
          "delayBeforeSpawn": 0,
          "spawnRate": 5,
          "totalSpawns": 5
        },
        {
          "position": {
            "x": 500,
            "y": 500
          },
          "enemyType": "MagicianEnemy",
          "delayBeforeSpawn": 2000,
          "spawnRate": 5,
          "totalSpawns": 5
        }
      ]
    },
    {
      "round": 10,
      "spawns": [
        {
          "position": {
            "x": 300,
            "y": 300
          },
          "enemyType": "HydraEnemy",
          "delayBeforeSpawn": 10000,
          "spawnRate": 1,
          "totalSpawns": 1
        }
      ]
    }
  ]
}